<?xml version="1.0" encoding="UTF-8" standalone="no"?>
<svg
   xmlns:lucid="lucid"
   xmlns:dc="http://purl.org/dc/elements/1.1/"
   xmlns:cc="http://creativecommons.org/ns#"
   xmlns:rdf="http://www.w3.org/1999/02/22-rdf-syntax-ns#"
   xmlns:svg="http://www.w3.org/2000/svg"
   xmlns="http://www.w3.org/2000/svg"
   xmlns:xlink="http://www.w3.org/1999/xlink"
   xmlns:sodipodi="http://sodipodi.sourceforge.net/DTD/sodipodi-0.dtd"
   xmlns:inkscape="http://www.inkscape.org/namespaces/inkscape"
   width="829.60516"
   height="539.01239"
   version="1.1"
   id="svg197"
   sodipodi:docname="9_1.svg"
   inkscape:version="1.0.1 (3bc2e813f5, 2020-09-07)">
  <metadata
     id="metadata203">
    <rdf:RDF>
      <cc:Work
         rdf:about="">
        <dc:format>image/svg+xml</dc:format>
        <dc:type
           rdf:resource="http://purl.org/dc/dcmitype/StillImage" />
        <dc:title></dc:title>
      </cc:Work>
    </rdf:RDF>
  </metadata>
  <defs
     id="defs201">
    <clipPath
       clipPathUnits="userSpaceOnUse"
       id="clipPath1030">
      <rect
         style="fill:#0000ff;fill-rule:evenodd"
         id="rect1032"
         width="829.60516"
         height="539.01239"
         x="-1680"
         y="-1214" />
    </clipPath>
  </defs>
  <sodipodi:namedview
     pagecolor="#ffffff"
     bordercolor="#666666"
     borderopacity="1"
     objecttolerance="10"
     gridtolerance="10"
     guidetolerance="10"
     inkscape:pageopacity="0"
     inkscape:pageshadow="2"
     inkscape:window-width="1366"
     inkscape:window-height="768"
     id="namedview199"
     showgrid="false"
     inkscape:zoom="0.24087067"
     inkscape:cx="222.91187"
     inkscape:cy="315.73405"
     inkscape:window-x="0"
     inkscape:window-y="0"
     inkscape:window-maximized="1"
     inkscape:current-layer="svg197" />
  <g
     transform="translate(1680,1214)"
     lucid:page-tab-id="0_0"
     id="g195"
     clip-path="url(#clipPath1030)">
    <path
       d="M -1806.4,-1259.2 H 64 V 64 h -1870.4 z"
       fill="#ffffff"
       id="path2" />
    <path
       d="m -1210.67,-1172 c 0,-3.3 2.7,-6 6,-6 h 228 c 3.32,0 6,2.7 6,6 v 48 c 0,3.3 -2.68,6 -6,6 h -228 c -3.3,0 -6,-2.7 -6,-6 z"
       fill="none"
       id="path4" />
    <use
       xlink:href="#a"
       transform="translate(-1142.7963,-1156.8889)"
       id="use6"
       x="0"
       y="0"
       width="100%"
       height="100%" />
    <use
       xlink:href="#b"
       transform="translate(-1074.3395,-1156.8889)"
       id="use8"
       x="0"
       y="0"
       width="100%"
       height="100%" />
    <use
       xlink:href="#c"
       transform="translate(-1147.1173,-1130.2222)"
       id="use10"
       x="0"
       y="0"
       width="100%"
       height="100%" />
    <path
       d="m -904,-979 h -655 v -2 h 655 z"
       fill="#5e5e5e"
       id="path12" />
    <path
       d="m -1558.97,-979 h -1.03 v -2 h 1.03 z m 670.22,-1 -14.26,4.64 v -9.28 z"
       fill="#5e5e5e"
       id="path14" />
    <path
       d="m -885.5,-980 -18.5,6 v -12 z m -16.5,3.26 10,-3.26 -10.03,-3.26 z"
       fill="#5e5e5e"
       id="path16" />
    <path
       d="m -1360,-979 v 140.5"
       stroke="#5e5e5e"
       stroke-width="2"
       fill="none"
       id="path18" />
    <path
       d="m -1359,-978.97 h -2 V -980 h 2 z"
       fill="#5e5e5e"
       id="path20" />
    <path
       d="m -1360,-823.24 -4.64,-14.26 h 9.28 z"
       stroke="#5e5e5e"
       stroke-width="2"
       fill="#5e5e5e"
       id="path22" />
    <path
       d="m -1160,-979 v 100.5"
       stroke="#5e5e5e"
       stroke-width="2"
       fill="none"
       id="path24" />
    <path
       d="m -1159,-978.97 h -2 V -980 h 2 z"
       fill="#5e5e5e"
       id="path26" />
    <path
       d="m -1160,-863.24 -4.64,-14.26 h 9.28 z"
       stroke="#5e5e5e"
       stroke-width="2"
       fill="#5e5e5e"
       id="path28" />
    <path
       d="m -960,-979 v 40.5"
       stroke="#5e5e5e"
       stroke-width="2"
       fill="none"
       id="path30" />
    <path
       d="m -959,-978.97 h -2 V -980 h 2 z"
       fill="#5e5e5e"
       id="path32" />
    <path
       d="m -960,-923.24 -4.64,-14.26 h 9.28 z"
       stroke="#5e5e5e"
       stroke-width="2"
       fill="#5e5e5e"
       id="path34" />
    <path
       d="m -1560,-979 v 40.5 m 0,-40.47 V -980"
       stroke="#5e5e5e"
       stroke-width="2"
       fill="none"
       id="path36" />
    <path
       d="m -1560,-923.24 -4.64,-14.26 h 9.28 z"
       stroke="#5e5e5e"
       stroke-width="2"
       fill="#5e5e5e"
       id="path38" />
    <path
       d="m -1559,-981 h -2 v -11 h 2 z m 0,-32.33 h -2 v -128.17 h 2 z"
       fill="#5e5e5e"
       id="path40" />
    <path
       fill="#5e5e5e"
       id="path42"
       d="" />
    <path
       d="m -1555.36,-1142.5 h -9.28 l 4.64,-14.26 z"
       fill="#5e5e5e"
       id="path44" />
    <path
       d="m -1554,-1141.5 h -12 l 6,-18.5 z m -9.26,-2 h 6.52 l -3.26,-10.03 z"
       fill="#5e5e5e"
       id="path46" />
    <use
       xlink:href="#d"
       transform="translate(-1564.9333,-999.11011)"
       id="use48"
       x="0"
       y="0"
       width="100%"
       height="100%" />
    <path
       d="m -1680,-914 c 0,-3.3 2.7,-6 6,-6 h 228 c 3.3,0 6,2.7 6,6 v 48 c 0,3.3 -2.7,6 -6,6 h -228 c -3.3,0 -6,-2.7 -6,-6 z m 200,-120 c 0,-3.3 2.7,-6 6,-6 h 228 c 3.3,0 6,2.7 6,6 v 48 c 0,3.3 -2.7,6 -6,6 h -228 c -3.3,0 -6,-2.7 -6,-6 z"
       stroke="#000000"
       stroke-opacity="0"
       stroke-width="3"
       fill="#ffffff"
       fill-opacity="0"
       id="path50" />
    <use
       xlink:href="#e"
       transform="translate(-1364.9383,-1005.1528)"
       id="use52"
       x="0"
       y="0"
       width="100%"
       height="100%" />
    <path
       d="m -1280,-1034 c 0,-3.3 2.7,-6 6,-6 h 228 c 3.3,0 6,2.7 6,6 v 48 c 0,3.3 -2.7,6 -6,6 h -228 c -3.3,0 -6,-2.7 -6,-6 z"
       stroke="#000000"
       stroke-opacity="0"
       stroke-width="3"
       fill="#ffffff"
       fill-opacity="0"
       id="path54" />
    <use
       xlink:href="#f"
       transform="translate(-1164.9383,-1005.1528)"
       id="use56"
       x="0"
       y="0"
       width="100%"
       height="100%" />
    <path
       d="m -1080,-1034 c 0,-3.3 2.7,-6 6,-6 h 228 c 3.3,0 6,2.7 6,6 v 48 c 0,3.3 -2.7,6 -6,6 h -228 c -3.3,0 -6,-2.7 -6,-6 z"
       stroke="#000000"
       stroke-opacity="0"
       stroke-width="3"
       fill="#ffffff"
       fill-opacity="0"
       id="path58" />
    <use
       xlink:href="#g"
       transform="translate(-964.93827,-1005.1528)"
       id="use60"
       x="0"
       y="0"
       width="100%"
       height="100%" />
    <path
       d="m -1680,-1214 c 0,-3.3 2.7,-6 6,-6 h 228 c 3.3,0 6,2.7 6,6 v 48 c 0,3.3 -2.7,6 -6,6 h -228 c -3.3,0 -6,-2.7 -6,-6 z"
       stroke="#000000"
       stroke-opacity="0"
       stroke-width="3"
       fill="#ffffff"
       fill-opacity="0"
       id="path62" />
    <use
       xlink:href="#h"
       transform="translate(-1627.5926,-1184.7222)"
       id="use64"
       x="0"
       y="0"
       width="100%"
       height="100%" />
    <path
       d="m -1560,-919 v 9.92 m 0,9.9 v 19.85 m 0,9.9 v 19.85 m 0,9.9 v 19.85 m 0,9.9 v 9.93 m -15,-1 h 30"
       stroke="#5e5e5e"
       stroke-width="2"
       fill="none"
       id="path66" />
    <path
       d="m -1680,-794 c 0,-3.3 2.7,-6 6,-6 h 228 c 3.3,0 6,2.7 6,6 v 48 c 0,3.3 -2.7,6 -6,6 h -228 c -3.3,0 -6,-2.7 -6,-6 z"
       stroke="#000000"
       stroke-opacity="0"
       stroke-width="3"
       fill="#ffffff"
       fill-opacity="0"
       id="path68" />
    <use
       xlink:href="#i"
       transform="translate(-1565.9568,-764.72222)"
       id="use70"
       x="0"
       y="0"
       width="100%"
       height="100%" />
    <path
       d="m -1020,-974 c 0,-3.3 2.7,-6 6,-6 h 228 c 3.3,0 6,2.7 6,6 v 48 c 0,3.3 -2.7,6 -6,6 h -228 c -3.3,0 -6,-2.7 -6,-6 z"
       stroke="#000000"
       stroke-opacity="0"
       stroke-width="3"
       fill="#ffffff"
       fill-opacity="0"
       id="path72" />
    <use
       xlink:href="#j"
       transform="translate(-917.90123,-944.72222)"
       id="use74"
       x="0"
       y="0"
       width="100%"
       height="100%" />
    <path
       d="m -1357.65,-820.24 396.5,-99.52 m -396.48,99.51 -1,0.25"
       stroke="#5e5e5e"
       stroke-width="2"
       fill="none"
       id="path76" />
    <path
       d="m -957.02,-919.76 -3.9,0.98 -0.32,-1.22 h 4.16 z"
       fill="#5e5e5e"
       id="path78" />
    <path
       d="m -1360.3,-819.04 -2.38,7.92 -0.46,1.32 m -3.2,9.12 -4.2,10.6 -3.23,7.26 m -4.12,8.74 -3.5,7.1 -5.5,10 m -4.96,8.3 -1.96,3.23 -6.22,9.38 -2.53,3.5 m -5.8,7.73 -3.44,4.34 -5.43,6.28 -3.77,4.02 m -6.88,6.8 -3.6,3.23 -4.12,3.43 -3.87,2.93 -3.5,2.44 m -8.32,4.93 -1.48,0.77 -2.9,1.36 -2.74,1.16 -2.64,1 -2.23,0.72 -0.7,0.2 -0.7,0.17 -0.73,0.14 -0.74,0.1 -0.76,0.1 -0.77,0.04 -0.8,0.02 h -0.84 l -0.2,-0.02 m -9.32,-2.35 -0.04,-0.03 -1.44,-0.67 -1.56,-0.8 -1.7,-0.97 -1.85,-1.17 -2.05,-1.4 -2.26,-1.7 -2.5,-2.06 -2.43,-2.16 m -6.8,-6.86 -0.25,-0.26 -3.97,-4.55 -4.44,-5.55 -3.45,-4.7 m -5.5,-7.98 -1.35,-2.02 -5.7,-9.33 -2.9,-5.22 m -4.57,-8.53 -4.12,-8.18 -4.2,-9.28 m -3.7,-8.93 -2.1,-5.2 -3.9,-11 -0.6,-1.98 m -2.8,-9.26 -2.05,-7.8 -1.72,-7.92 -0.54,-3.12 m -1.43,-9.57 -0.02,-0.24 -0.47,-5.25 -0.2,-4.16 m 201.15,21.86 0.3,-0.98"
       stroke="#3aa6dd"
       stroke-width="2"
       fill="none"
       id="path80" />
    <path
       d="m -1560.26,-855.98 3.47,14.6 -9.23,-0.75 z"
       stroke="#3aa6dd"
       stroke-width="2"
       fill="#3aa6dd"
       id="path82" />
    <path
       d="m -1400,-820 h 85.84 v 27.04 H -1400 Z"
       fill="#ffffff"
       fill-opacity="0"
       id="path84" />
    <path
       d="m -1381.6,-799.76 -0.04,0.4 h -4.3 l -3.8,-8 c -0.25,0.04 -0.53,0.06 -0.74,0.06 -0.35,0 -0.6,-0.05 -0.96,-0.1 l -1.58,6.07 c -0.05,0.2 -0.07,0.38 -0.07,0.58 0,0.6 0.46,1 1.94,1 h 0.48 l -0.1,0.4 h -8.26 l 0.1,-0.4 h 0.4 c 1.94,0 2.45,-0.72 2.68,-1.58 l 3.15,-12.62 c 0.04,-0.2 0.12,-0.43 0.12,-0.64 0,-0.52 -0.44,-0.93 -1.96,-0.93 h -0.5 l 0.1,-0.4 h 6.88 c 4.06,0 5.48,1.67 5.48,3.83 0,2.1 -1.8,3.8 -4.52,4.35 l 2.92,5.8 c 0.48,1 1.14,2.07 2.6,2.2 m -8,-15.17 -1.63,6.6 c 0.32,0.08 0.57,0.1 0.8,0.1 3.38,0 4.85,-1.46 4.85,-3.6 0,-2.74 -1.58,-3.17 -3.18,-3.17 -0.35,0 -0.58,0.03 -0.86,0.08 m 15.47,19.37 h -4.95 v -0.26 c 1.32,-0.07 1.7,-0.44 1.7,-1.43 v -8.06 c 0,-0.6 -0.16,-0.87 -0.54,-0.87 -0.18,0 -0.48,0.1 -0.8,0.2 l -0.5,0.2 v -0.26 l 3.22,-1.63 0.17,0.05 v 10.7 c 0,0.78 0.35,1.1 1.7,1.1 v 0.27 m 27.69,-11.96 h -14.96 v -1.67 h 14.96 v 1.67 m 0,5.08 h -14.96 v -1.67 h 14.96 v 1.67 m 14.98,-13.13 v 6.25 c 3.07,1.65 3.7,2.3 4.4,3.33 0.35,0.53 0.53,1.34 0.53,2.28 0,2.95 -2,3.9 -4.93,4.32 v 2.2 h -0.86 v -2.2 c -2.2,0 -3.33,-0.36 -4.73,-1.3 v -3.3 h 0.38 c 0.54,2.54 2.1,3.9 4.35,3.9 v -7.17 c -3.5,-1.98 -4.52,-3.02 -4.52,-5.16 0,-2.54 2.15,-3.68 4.52,-3.83 v -1.6 h 0.86 v 1.6 c 2.06,0.12 3.3,0.55 4.1,1.33 v 2.82 h -0.4 c -0.5,-2.1 -1.67,-3.22 -3.7,-3.48 m -0.86,5.85 v -5.85 c -1.8,0.36 -2.65,1.38 -2.65,2.67 0,1.12 0.5,1.73 2.65,3.18 m 0.86,2.9 v 6.72 c 2.06,-0.43 2.9,-1.22 2.9,-3.02 0,-1.55 -0.6,-2.34 -2.9,-3.7 m 12.19,3.29 h -0.43 c 0.02,-1.03 0.22,-2.3 1.1,-4.5 0.67,-1.63 1.3,-3.23 1.3,-4.76 0,-1.75 -1.2,-3 -2.76,-3 -1.22,0 -2.4,0.77 -2.4,1.58 0,0.94 0.98,1.04 0.98,1.88 0,0.63 -0.4,1.1 -1.04,1.1 -0.7,0 -1.22,-0.64 -1.22,-1.68 0,-2.1 1.73,-3.64 4.16,-3.64 2.47,0 4.62,1.55 4.62,4.02 0,1.55 -0.48,2.4 -2.66,5 -0.92,1.1 -1.37,2.26 -1.65,4 z m 1.17,3 c 0,0.74 -0.56,1.35 -1.32,1.35 -0.87,0 -1.38,-0.63 -1.38,-1.34 0,-0.75 0.6,-1.34 1.38,-1.34 0.7,0 1.32,0.64 1.32,1.35"
       id="path86" />
    <path
       d="m -1202.92,-847.04 h 85.84 V -820 h -85.84 z"
       fill="#ffffff"
       fill-opacity="0"
       id="path88" />
    <path
       d="m -1184.5,-826.8 -0.06,0.4 h -4.3 l -3.8,-8 c -0.26,0.04 -0.54,0.06 -0.74,0.06 -0.36,0 -0.6,-0.05 -0.96,-0.1 l -1.58,6.07 c -0.05,0.2 -0.08,0.38 -0.08,0.58 0,0.62 0.46,1 1.93,1 h 0.5 l -0.1,0.4 h -8.26 l 0.1,-0.4 h 0.4 c 1.94,0 2.45,-0.7 2.68,-1.57 l 3.15,-12.62 c 0.05,-0.2 0.12,-0.42 0.12,-0.63 0,-0.53 -0.44,-0.94 -1.96,-0.94 h -0.5 l 0.1,-0.4 h 6.87 c 4.08,0 5.5,1.67 5.5,3.83 0,2.1 -1.8,3.8 -4.52,4.35 l 2.92,5.82 c 0.48,1 1.14,2.06 2.6,2.18 m -8,-15.16 -1.64,6.6 c 0.33,0.08 0.6,0.1 0.82,0.1 3.37,0 4.85,-1.46 4.85,-3.6 0,-2.74 -1.58,-3.17 -3.18,-3.17 -0.35,0 -0.58,0.02 -0.86,0.07 m 16.9,16.91 -0.98,2.45 h -7.02 v -0.2 l 3.2,-3.4 c 1.68,-1.78 2.33,-3.15 2.33,-4.67 0,-1.64 -0.97,-2.53 -2.5,-2.53 -1.3,0 -1.92,0.57 -2.64,2.33 l -0.4,-0.1 c 0.4,-2.1 1.54,-3.56 3.75,-3.56 2.03,0 3.32,1.38 3.32,3.16 0,1.42 -0.7,2.76 -2.3,4.45 l -2.96,3.17 h 4.2 c 0.76,0 1.14,-0.2 1.73,-1.2 m 26.5,-9.4 h -14.95 v -1.67 h 14.95 v 1.68 m 0,5.08 h -14.95 v -1.67 h 14.95 v 1.66 m 14.99,-13.13 v 6.25 c 3.07,1.65 3.7,2.3 4.4,3.33 0.35,0.54 0.52,1.35 0.52,2.3 0,2.94 -2,3.9 -4.92,4.3 v 2.22 h -0.87 v -2.2 c -2.2,0 -3.32,-0.36 -4.72,-1.3 v -3.3 h 0.38 c 0.54,2.53 2.12,3.88 4.35,3.88 v -7.16 c -3.5,-1.98 -4.52,-3.02 -4.52,-5.16 0,-2.54 2.16,-3.68 4.52,-3.83 v -1.6 h 0.87 v 1.6 c 2.05,0.13 3.3,0.56 4.08,1.35 v 2.8 h -0.38 c -0.5,-2.1 -1.67,-3.2 -3.7,-3.47 m -0.87,5.85 v -5.85 c -1.8,0.36 -2.64,1.38 -2.64,2.67 0,1.12 0.52,1.73 2.65,3.18 m 0.87,2.9 v 6.72 c 2.05,-0.43 2.9,-1.22 2.9,-3.02 0,-1.55 -0.6,-2.34 -2.9,-3.7 m 12.16,3.26 h -0.43 c 0.03,-1.02 0.23,-2.3 1.12,-4.5 0.65,-1.62 1.3,-3.22 1.3,-4.75 0,-1.75 -1.23,-3 -2.78,-3 -1.22,0 -2.4,0.77 -2.4,1.58 0,0.94 0.98,1.04 0.98,1.88 0,0.63 -0.4,1.1 -1.04,1.1 -0.72,0 -1.22,-0.64 -1.22,-1.68 0,-2.1 1.72,-3.64 4.16,-3.64 2.46,0 4.62,1.55 4.62,4.02 0,1.55 -0.48,2.4 -2.66,5 -0.92,1.1 -1.38,2.26 -1.65,4 z m 1.17,3.02 c 0,0.73 -0.56,1.34 -1.32,1.34 -0.86,0 -1.37,-0.62 -1.37,-1.33 0,-0.76 0.6,-1.35 1.37,-1.35 0.7,0 1.32,0.64 1.32,1.35"
       id="path90" />
    <path
       d="m -1002.92,-903.52 h 85.84 v 27.04 h -85.84 z"
       fill="#ffffff"
       fill-opacity="0"
       id="path92" />
    <path
       d="m -984.5,-883.28 -0.06,0.4 h -4.3 l -3.8,-8 c -0.26,0.04 -0.54,0.06 -0.74,0.06 -0.36,0 -0.6,-0.05 -0.96,-0.1 l -1.58,6.07 c -0.05,0.2 -0.08,0.38 -0.08,0.58 0,0.6 0.46,1 1.93,1 h 0.5 l -0.1,0.4 h -8.26 l 0.1,-0.4 h 0.4 c 1.94,0 2.45,-0.72 2.68,-1.58 l 3.15,-12.62 c 0.05,-0.2 0.12,-0.43 0.12,-0.64 0,-0.54 -0.44,-0.95 -1.96,-0.95 h -0.5 l 0.1,-0.4 h 6.87 c 4.08,0 5.5,1.67 5.5,3.83 0,2.1 -1.8,3.8 -4.52,4.35 l 2.92,5.8 c 0.48,1 1.14,2.07 2.6,2.2 m -8,-15.17 -1.64,6.6 c 0.33,0.08 0.6,0.1 0.82,0.1 3.37,0 4.85,-1.46 4.85,-3.6 0,-2.74 -1.58,-3.17 -3.18,-3.17 -0.35,0 -0.58,0 -0.86,0.06 m 9.47,10.26 -0.3,-0.07 c 0.53,-1.7 1.66,-2.9 3.53,-2.9 1.67,0 2.8,0.98 2.8,2.45 0,0.86 -0.46,1.76 -1.67,2.48 0.8,0.34 1.12,0.55 1.5,0.95 0.5,0.56 0.78,1.4 0.78,2.32 0,0.95 -0.3,1.83 -0.8,2.52 -0.87,1.15 -2.58,1.67 -4.18,1.67 -1.3,0 -2,-0.37 -2,-1.02 0,-0.37 0.3,-0.64 0.73,-0.64 0.3,0 0.6,0.1 1.1,0.46 0.66,0.47 1.03,0.56 1.54,0.56 1.3,0 2.32,-1.22 2.32,-2.75 0,-1.35 -0.63,-2.23 -1.87,-2.6 -0.4,-0.12 -0.8,-0.17 -1.83,-0.17 v -0.25 c 0.68,-0.23 1.15,-0.43 1.5,-0.65 0.9,-0.5 1.46,-1.3 1.46,-2.4 0,-1.22 -0.75,-1.83 -1.93,-1.83 -1.12,0 -1.94,0.57 -2.68,1.9 m 33.66,-2.83 h -14.95 v -1.67 h 14.95 v 1.67 m 0,5.08 h -14.95 v -1.67 h 14.95 v 1.68 m 14.99,-13.14 v 6.25 c 3.07,1.65 3.7,2.3 4.4,3.33 0.35,0.53 0.52,1.34 0.52,2.28 0,2.96 -2,3.92 -4.92,4.33 v 2.2 h -0.87 v -2.2 c -2.2,0 -3.32,-0.35 -4.72,-1.3 v -3.3 h 0.38 c 0.54,2.54 2.12,3.9 4.35,3.9 v -7.17 c -3.5,-1.98 -4.52,-3.02 -4.52,-5.16 0,-2.54 2.16,-3.68 4.52,-3.83 v -1.6 h 0.87 v 1.6 c 2.05,0.13 3.3,0.56 4.08,1.34 v 2.83 h -0.38 c -0.5,-2.1 -1.67,-3.22 -3.7,-3.48 m -0.87,5.85 v -5.85 c -1.8,0.36 -2.64,1.38 -2.64,2.67 0,1.12 0.52,1.73 2.65,3.18 m 0.87,2.9 v 6.72 c 2.05,-0.43 2.9,-1.22 2.9,-3.02 0,-1.55 -0.6,-2.34 -2.9,-3.7 m 12.16,3.25 h -0.43 c 0.03,-1.02 0.23,-2.3 1.12,-4.5 0.65,-1.62 1.3,-3.22 1.3,-4.75 0,-1.75 -1.23,-3 -2.78,-3 -1.22,0 -2.4,0.77 -2.4,1.58 0,0.94 0.98,1.04 0.98,1.88 0,0.63 -0.4,1.1 -1.04,1.1 -0.72,0 -1.22,-0.64 -1.22,-1.68 0,-2.1 1.72,-3.64 4.16,-3.64 2.46,0 4.62,1.55 4.62,4.02 0,1.55 -0.48,2.4 -2.66,5 -0.92,1.1 -1.38,2.26 -1.65,4 z m 1.17,3.02 c 0,0.72 -0.56,1.33 -1.32,1.33 -0.86,0 -1.37,-0.63 -1.37,-1.34 0,-0.77 0.6,-1.36 1.37,-1.36 0.7,0 1.32,0.64 1.32,1.35"
       id="path94" />
    <defs
       id="defs193">
      <path
         fill="#333333"
         d="m 24,-231 v -30 h 32 v 30 z M 24,0 V -190 H 56 V 0 H 24"
         id="k" />
      <path
         fill="#333333"
         d="m 18,-150 v -26 h 174 v 26 z m 0,90 v -26 h 174 v 26 H 18"
         id="l" />
      <path
         fill="#333333"
         d="m 27,0 v -27 h 64 v -190 l -56,39 v -29 l 58,-41 h 29 v 221 h 61 V 0 H 27"
         id="m" />
      <path
         fill="#333333"
         d="m 101,-251 c 68,0 85,55 85,127 0,72 -20,128 -86,128 -67,0 -86,-56 -86,-128 0,-73 17,-127 87,-127 z m -1,229 c 47,0 54,-49 54,-102 0,-53 -4,-102 -53,-102 -51,0 -55,48 -55,102 0,53 5,102 54,102"
         id="n" />
      <path
         fill="#333333"
         d="m 252,-156 c 43,0 55,33 55,80 0,46 -13,78 -56,78 -42,0 -55,-33 -55,-78 0,-48 12,-80 56,-80 z M 93,0 H 65 l 162,-248 h 28 z M 13,-171 c -1,-47 13,-79 56,-79 43,0 55,33 55,79 0,46 -13,79 -55,79 -43,0 -56,-33 -56,-79 z m 238,154 c 28,0 30,-29 30,-59 0,-31 -1,-60 -29,-60 -29,0 -31,29 -31,60 0,29 2,59 30,59 z M 69,-112 c 27,0 28,-30 29,-59 0,-31 -1,-60 -29,-60 -29,0 -30,30 -30,60 0,30 2,59 30,59"
         id="o" />
      <g
         id="a">
        <use
           transform="scale(0.0617284)"
           xlink:href="#k"
           id="use101"
           x="0"
           y="0"
           width="100%"
           height="100%" />
        <use
           transform="matrix(0.0617284,0,0,0.0617284,4.8765432,0)"
           xlink:href="#l"
           id="use103"
           x="0"
           y="0"
           width="100%"
           height="100%" />
        <use
           transform="matrix(0.0617284,0,0,0.0617284,17.839506,0)"
           xlink:href="#m"
           id="use105"
           x="0"
           y="0"
           width="100%"
           height="100%" />
        <use
           transform="matrix(0.0617284,0,0,0.0617284,30.185185,0)"
           xlink:href="#n"
           id="use107"
           x="0"
           y="0"
           width="100%"
           height="100%" />
        <use
           transform="matrix(0.0617284,0,0,0.0617284,42.530864,0)"
           xlink:href="#o"
           id="use109"
           x="0"
           y="0"
           width="100%"
           height="100%" />
      </g>
      <path
         fill="#333333"
         d="m 115,-194 c 55,1 70,41 70,98 C 185,-39 169,2 115,4 84,4 66,-9 55,-30 L 56,75 H 24 l -1,-265 h 31 l 2,30 c 10,-21 28,-34 59,-34 z m -8,174 c 40,0 45,-34 45,-75 0,-41 -6,-73 -45,-74 -42,0 -51,32 -51,76 0,43 10,73 51,73"
         id="p" />
      <path
         fill="#333333"
         d="M 141,-36 C 126,-15 110,5 73,4 37,3 15,-17 15,-53 c -1,-64 63,-63 125,-63 3,-35 -9,-54 -41,-54 -24,1 -41,7 -42,31 l -33,-3 c 5,-37 33,-52 76,-52 45,0 72,20 72,64 v 82 c -1,20 7,32 28,27 V -1 C 169,8 139,-3 141,-36 Z M 48,-53 c 0,20 12,33 32,33 41,-3 63,-29 60,-74 -43,2 -92,-5 -92,41"
         id="q" />
      <path
         fill="#333333"
         d="M 108,0 H 70 L 1,-190 h 34 l 54,165 56,-165 h 34"
         id="r" />
      <g
         id="b">
        <use
           transform="scale(0.0617284)"
           xlink:href="#p"
           id="use115"
           x="0"
           y="0"
           width="100%"
           height="100%" />
        <use
           transform="matrix(0.0617284,0,0,0.0617284,12.345679,0)"
           xlink:href="#q"
           id="use117"
           x="0"
           y="0"
           width="100%"
           height="100%" />
        <use
           transform="matrix(0.0617284,0,0,0.0617284,24.691358,0)"
           xlink:href="#r"
           id="use119"
           x="0"
           y="0"
           width="100%"
           height="100%" />
      </g>
      <path
         fill="#333333"
         d="M 30,0 V -248 H 63 V -27 H 188 V 0 H 30"
         id="s" />
      <path
         fill="#333333"
         d="m 16,-82 v -28 h 88 v 28 H 16"
         id="t" />
      <path
         fill="#333333"
         d="m 194,-70 c 0,46 -34,64 -81,66 V 25 H 91 V -4 C 42,-5 12,-27 4,-67 l 30,-6 c 5,28 25,41 57,43 v -87 c -38,-9 -76,-20 -76,-67 1,-42 33,-58 76,-59 v -23 h 22 v 23 c 45,0 67,20 76,56 l -31,6 c -5,-23 -18,-35 -45,-37 v 78 c 41,10 81,20 81,70 z m -81,41 c 51,7 71,-66 19,-77 -6,-2 -12,-4 -19,-6 z M 91,-219 c -47,-6 -63,57 -18,69 6,2 12,3 18,5 v -74"
         id="u" />
      <path
         fill="#333333"
         d="m 101,-251 c 82,-7 93,87 43,132 L 82,-64 C 71,-53 59,-42 53,-27 H 182 V 0 H 18 c 2,-99 128,-94 128,-182 0,-28 -16,-43 -45,-43 -29,0 -46,15 -49,41 l -32,-3 c 6,-41 34,-60 81,-64"
         id="v" />
      <path
         fill="#333333"
         d="M 33,0 V -38 H 67 V 0 H 33"
         id="w" />
      <g
         id="c">
        <use
           transform="scale(0.0617284)"
           xlink:href="#s"
           id="use127"
           x="0"
           y="0"
           width="100%"
           height="100%" />
        <use
           transform="matrix(0.0617284,0,0,0.0617284,12.345679,0)"
           xlink:href="#l"
           id="use129"
           x="0"
           y="0"
           width="100%"
           height="100%" />
        <use
           transform="matrix(0.0617284,0,0,0.0617284,25.308642,0)"
           xlink:href="#t"
           id="use131"
           x="0"
           y="0"
           width="100%"
           height="100%" />
        <use
           transform="matrix(0.0617284,0,0,0.0617284,32.654321,0)"
           xlink:href="#u"
           id="use133"
           x="0"
           y="0"
           width="100%"
           height="100%" />
        <use
           transform="matrix(0.0617284,0,0,0.0617284,45,0)"
           xlink:href="#v"
           id="use135"
           x="0"
           y="0"
           width="100%"
           height="100%" />
        <use
           transform="matrix(0.0617284,0,0,0.0617284,57.345679,0)"
           xlink:href="#n"
           id="use137"
           x="0"
           y="0"
           width="100%"
           height="100%" />
        <use
           transform="matrix(0.0617284,0,0,0.0617284,69.691358,0)"
           xlink:href="#w"
           id="use139"
           x="0"
           y="0"
           width="100%"
           height="100%" />
        <use
           transform="matrix(0.0617284,0,0,0.0617284,75.864198,0)"
           xlink:href="#n"
           id="use141"
           x="0"
           y="0"
           width="100%"
           height="100%" />
        <use
           transform="matrix(0.0617284,0,0,0.0617284,88.209877,0)"
           xlink:href="#n"
           id="use143"
           x="0"
           y="0"
           width="100%"
           height="100%" />
        <use
           transform="matrix(0.0617284,0,0,0.0617284,100.55556,0)"
           xlink:href="#n"
           id="use145"
           x="0"
           y="0"
           width="100%"
           height="100%" />
      </g>
      <path
         fill="#333333"
         d="m 101,-251 c 68,0 84,54 84,127 C 185,-50 166,4 99,4 32,4 15,-52 14,-124 c -1,-75 17,-127 87,-127 z m -1,216 c 37,-5 36,-46 36,-89 0,-43 4,-89 -36,-89 -39,0 -36,45 -36,89 0,43 -3,85 36,89"
         id="x" />
      <use
         transform="scale(0.04938272)"
         xlink:href="#x"
         id="d"
         x="0"
         y="0"
         width="100%"
         height="100%" />
      <use
         transform="scale(0.04938272)"
         xlink:href="#m"
         id="e"
         x="0"
         y="0"
         width="100%"
         height="100%" />
      <use
         transform="scale(0.04938272)"
         xlink:href="#v"
         id="f"
         x="0"
         y="0"
         width="100%"
         height="100%" />
      <path
         fill="#333333"
         d="m 126,-127 c 33,6 58,20 58,59 0,88 -139,92 -164,29 -3,-8 -5,-16 -6,-25 l 32,-3 c 6,27 21,44 54,44 32,0 52,-15 52,-46 0,-38 -36,-46 -79,-43 v -28 c 39,1 72,-4 72,-42 0,-27 -17,-43 -46,-43 -28,0 -47,15 -49,41 l -32,-3 c 6,-42 35,-63 81,-64 48,-1 79,21 79,65 0,36 -21,52 -52,59"
         id="y" />
      <use
         transform="scale(0.04938272)"
         xlink:href="#y"
         id="g"
         x="0"
         y="0"
         width="100%"
         height="100%" />
      <path
         fill="#333333"
         d="M 137,0 H 103 L 2,-248 h 35 l 83,218 83,-218 h 36"
         id="z" />
      <path
         fill="#333333"
         d="m 30,-248 c 87,1 191,-15 191,75 0,78 -77,80 -158,76 V 0 H 30 Z m 33,125 c 57,0 124,11 124,-50 0,-59 -68,-47 -124,-48 v 98"
         id="A" />
      <path
         fill="#333333"
         d="m 54,-142 c 48,-35 137,-8 131,61 C 196,18 31,33 14,-55 l 32,-4 c 7,23 22,37 52,37 35,-1 51,-22 54,-58 4,-55 -73,-65 -99,-34 H 22 l 8,-134 h 141 v 27 H 59"
         id="B" />
      <g
         id="h">
        <use
           transform="scale(0.0617284)"
           xlink:href="#z"
           id="use157"
           x="0"
           y="0"
           width="100%"
           height="100%" />
        <use
           transform="matrix(0.0617284,0,0,0.0617284,14.814815,0)"
           xlink:href="#A"
           id="use159"
           x="0"
           y="0"
           width="100%"
           height="100%" />
        <use
           transform="matrix(0.0617284,0,0,0.0617284,29.62963,0)"
           xlink:href="#l"
           id="use161"
           x="0"
           y="0"
           width="100%"
           height="100%" />
        <use
           transform="matrix(0.0617284,0,0,0.0617284,42.592593,0)"
           xlink:href="#u"
           id="use163"
           x="0"
           y="0"
           width="100%"
           height="100%" />
        <use
           transform="matrix(0.0617284,0,0,0.0617284,54.938272,0)"
           xlink:href="#B"
           id="use165"
           x="0"
           y="0"
           width="100%"
           height="100%" />
        <use
           transform="matrix(0.0617284,0,0,0.0617284,67.283951,0)"
           xlink:href="#n"
           id="use167"
           x="0"
           y="0"
           width="100%"
           height="100%" />
        <use
           transform="matrix(0.0617284,0,0,0.0617284,79.62963,0)"
           xlink:href="#n"
           id="use169"
           x="0"
           y="0"
           width="100%"
           height="100%" />
        <use
           transform="matrix(0.0617284,0,0,0.0617284,91.975309,0)"
           xlink:href="#w"
           id="use171"
           x="0"
           y="0"
           width="100%"
           height="100%" />
        <use
           transform="matrix(0.0617284,0,0,0.0617284,98.148148,0)"
           xlink:href="#n"
           id="use173"
           x="0"
           y="0"
           width="100%"
           height="100%" />
        <use
           transform="matrix(0.0617284,0,0,0.0617284,110.49383,0)"
           xlink:href="#n"
           id="use175"
           x="0"
           y="0"
           width="100%"
           height="100%" />
        <use
           transform="matrix(0.0617284,0,0,0.0617284,122.83951,0)"
           xlink:href="#n"
           id="use177"
           x="0"
           y="0"
           width="100%"
           height="100%" />
      </g>
      <path
         fill="#333333"
         d="m 101,-234 c -31,-9 -42,10 -38,44 h 38 v 23 H 63 V 0 H 32 V -167 H 5 v -23 h 27 c -7,-52 17,-82 69,-68 v 24"
         id="C" />
      <g
         id="i">
        <use
           transform="scale(0.0617284)"
           xlink:href="#C"
           id="use181"
           x="0"
           y="0"
           width="100%"
           height="100%" />
        <use
           transform="matrix(0.0617284,0,0,0.0617284,5.7407407,0)"
           xlink:href="#C"
           id="use183"
           x="0"
           y="0"
           width="100%"
           height="100%" />
      </g>
      <g
         id="j">
        <use
           transform="scale(0.0617284)"
           xlink:href="#p"
           id="use186"
           x="0"
           y="0"
           width="100%"
           height="100%" />
        <use
           transform="matrix(0.0617284,0,0,0.0617284,12.345679,0)"
           xlink:href="#q"
           id="use188"
           x="0"
           y="0"
           width="100%"
           height="100%" />
        <use
           transform="matrix(0.0617284,0,0,0.0617284,24.691358,0)"
           xlink:href="#r"
           id="use190"
           x="0"
           y="0"
           width="100%"
           height="100%" />
      </g>
    </defs>
  </g>
</svg>
